INDEX VERSION 1.127+/dades/dades/mikel llabres/kepler/workspace/Servidor Bomberman/.metadata/.plugins/org.eclipse.jdt.core
3885805113.index
896656433.index
2066489604.index
2771403403.index
742522455.index
2982035129.index
120211678.index
2233963263.index
3214207201.index
46282419.index
3888198363.index
2841451250.index
2630498905.index
3721837726.index
1932949083.index
1913109094.index
